%YAML 1.1
%TAG !u! tag:unity3d.com,2011:
--- !u!29 &1
OcclusionCullingSettings:
  m_ObjectHideFlags: 0
  serializedVersion: 2
  m_OcclusionBakeSettings:
    smallestOccluder: 5
    smallestHole: 0.25
    backfaceThreshold: 100
  m_SceneGUID: 00000000000000000000000000000000
  m_OcclusionCullingData: {fileID: 0}
--- !u!104 &2
RenderSettings:
  m_ObjectHideFlags: 0
  serializedVersion: 8
  m_Fog: 0
  m_FogColor: {r: 0.5, g: 0.5, b: 0.5, a: 1}
  m_FogMode: 3
  m_FogDensity: 0.01
  m_LinearFogStart: 0
  m_LinearFogEnd: 300
  m_AmbientSkyColor: {r: 0.212, g: 0.227, b: 0.259, a: 1}
  m_AmbientEquatorColor: {r: 0.114, g: 0.125, b: 0.133, a: 1}
  m_AmbientGroundColor: {r: 0.047, g: 0.043, b: 0.035, a: 1}
  m_AmbientIntensity: 1
  m_AmbientMode: 3
  m_SubtractiveShadowColor: {r: 0.42, g: 0.478, b: 0.627, a: 1}
  m_SkyboxMaterial: {fileID: 0}
  m_HaloStrength: 0.5
  m_FlareStrength: 1
  m_FlareFadeSpeed: 3
  m_HaloTexture: {fileID: 0}
  m_SpotCookie: {fileID: 10001, guid: 0000000000000000e000000000000000, type: 0}
  m_DefaultReflectionMode: 0
  m_DefaultReflectionResolution: 128
  m_ReflectionBounces: 1
  m_ReflectionIntensity: 1
  m_CustomReflection: {fileID: 0}
  m_Sun: {fileID: 0}
  m_IndirectSpecularColor: {r: 0, g: 0, b: 0, a: 1}
--- !u!157 &3
LightmapSettings:
  m_ObjectHideFlags: 0
  serializedVersion: 11
  m_GIWorkflowMode: 1
  m_GISettings:
    serializedVersion: 2
    m_BounceScale: 1
    m_IndirectOutputScale: 1
    m_AlbedoBoost: 1
    m_TemporalCoherenceThreshold: 1
    m_EnvironmentLightingMode: 0
    m_EnableBakedLightmaps: 0
    m_EnableRealtimeLightmaps: 0
  m_LightmapEditorSettings:
    serializedVersion: 9
    m_Resolution: 2
    m_BakeResolution: 40
    m_TextureWidth: 1024
    m_TextureHeight: 1024
    m_AO: 0
    m_AOMaxDistance: 1
    m_CompAOExponent: 1
    m_CompAOExponentDirect: 0
    m_Padding: 2
    m_LightmapParameters: {fileID: 0}
    m_LightmapsBakeMode: 1
    m_TextureCompression: 1
    m_FinalGather: 0
    m_FinalGatherFiltering: 1
    m_FinalGatherRayCount: 256
    m_ReflectionCompression: 2
    m_MixedBakeMode: 2
    m_BakeBackend: 0
    m_PVRSampling: 1
    m_PVRDirectSampleCount: 32
    m_PVRSampleCount: 500
    m_PVRBounces: 2
    m_PVRFilterTypeDirect: 0
    m_PVRFilterTypeIndirect: 0
    m_PVRFilterTypeAO: 0
    m_PVRFilteringMode: 1
    m_PVRCulling: 1
    m_PVRFilteringGaussRadiusDirect: 1
    m_PVRFilteringGaussRadiusIndirect: 5
    m_PVRFilteringGaussRadiusAO: 2
    m_PVRFilteringAtrousPositionSigmaDirect: 0.5
    m_PVRFilteringAtrousPositionSigmaIndirect: 2
    m_PVRFilteringAtrousPositionSigmaAO: 1
    m_ShowResolutionOverlay: 1
  m_LightingDataAsset: {fileID: 0}
  m_UseShadowmask: 1
--- !u!196 &4
NavMeshSettings:
  serializedVersion: 2
  m_ObjectHideFlags: 0
  m_BuildSettings:
    serializedVersion: 2
    agentTypeID: 0
    agentRadius: 0.5
    agentHeight: 2
    agentSlope: 45
    agentClimb: 0.4
    ledgeDropHeight: 0
    maxJumpAcrossDistance: 0
    minRegionArea: 2
    manualCellSize: 0
    cellSize: 0.16666667
    manualTileSize: 0
    tileSize: 256
    accuratePlacement: 0
    debug:
      m_Flags: 0
  m_NavMeshData: {fileID: 0}
--- !u!1001 &123418358
Prefab:
  m_ObjectHideFlags: 0
  serializedVersion: 2
  m_Modification:
    m_TransformParent: {fileID: 1078361835}
    m_Modifications:
    - target: {fileID: 224487962221629340, guid: 1a5bc86e4a4d57e479843c375e62362e,
        type: 2}
      propertyPath: m_LocalPosition.x
      value: 0
      objectReference: {fileID: 0}
    - target: {fileID: 224487962221629340, guid: 1a5bc86e4a4d57e479843c375e62362e,
        type: 2}
      propertyPath: m_LocalPosition.y
      value: 0
      objectReference: {fileID: 0}
    - target: {fileID: 224487962221629340, guid: 1a5bc86e4a4d57e479843c375e62362e,
        type: 2}
      propertyPath: m_LocalPosition.z
      value: 0
      objectReference: {fileID: 0}
    - target: {fileID: 224487962221629340, guid: 1a5bc86e4a4d57e479843c375e62362e,
        type: 2}
      propertyPath: m_LocalRotation.x
      value: -0
      objectReference: {fileID: 0}
    - target: {fileID: 224487962221629340, guid: 1a5bc86e4a4d57e479843c375e62362e,
        type: 2}
      propertyPath: m_LocalRotation.y
      value: -0
      objectReference: {fileID: 0}
    - target: {fileID: 224487962221629340, guid: 1a5bc86e4a4d57e479843c375e62362e,
        type: 2}
      propertyPath: m_LocalRotation.z
      value: -0
      objectReference: {fileID: 0}
    - target: {fileID: 224487962221629340, guid: 1a5bc86e4a4d57e479843c375e62362e,
        type: 2}
      propertyPath: m_LocalRotation.w
      value: 1
      objectReference: {fileID: 0}
    - target: {fileID: 224487962221629340, guid: 1a5bc86e4a4d57e479843c375e62362e,
        type: 2}
      propertyPath: m_RootOrder
      value: 1
      objectReference: {fileID: 0}
    - target: {fileID: 224487962221629340, guid: 1a5bc86e4a4d57e479843c375e62362e,
        type: 2}
      propertyPath: m_AnchoredPosition.x
      value: 0
      objectReference: {fileID: 0}
    - target: {fileID: 224487962221629340, guid: 1a5bc86e4a4d57e479843c375e62362e,
        type: 2}
      propertyPath: m_AnchoredPosition.y
      value: 0
      objectReference: {fileID: 0}
    - target: {fileID: 224487962221629340, guid: 1a5bc86e4a4d57e479843c375e62362e,
        type: 2}
      propertyPath: m_SizeDelta.x
      value: 0
      objectReference: {fileID: 0}
    - target: {fileID: 224487962221629340, guid: 1a5bc86e4a4d57e479843c375e62362e,
        type: 2}
      propertyPath: m_SizeDelta.y
      value: 0
      objectReference: {fileID: 0}
    - target: {fileID: 224487962221629340, guid: 1a5bc86e4a4d57e479843c375e62362e,
        type: 2}
      propertyPath: m_AnchorMin.x
      value: 0
      objectReference: {fileID: 0}
    - target: {fileID: 224487962221629340, guid: 1a5bc86e4a4d57e479843c375e62362e,
        type: 2}
      propertyPath: m_AnchorMin.y
      value: 0
      objectReference: {fileID: 0}
    - target: {fileID: 224487962221629340, guid: 1a5bc86e4a4d57e479843c375e62362e,
        type: 2}
      propertyPath: m_AnchorMax.x
      value: 0
      objectReference: {fileID: 0}
    - target: {fileID: 224487962221629340, guid: 1a5bc86e4a4d57e479843c375e62362e,
        type: 2}
      propertyPath: m_AnchorMax.y
      value: 0
      objectReference: {fileID: 0}
    - target: {fileID: 224487962221629340, guid: 1a5bc86e4a4d57e479843c375e62362e,
        type: 2}
      propertyPath: m_Pivot.x
      value: 0.5
      objectReference: {fileID: 0}
    - target: {fileID: 224487962221629340, guid: 1a5bc86e4a4d57e479843c375e62362e,
        type: 2}
      propertyPath: m_Pivot.y
      value: 0.5
      objectReference: {fileID: 0}
    - target: {fileID: 1459290662469086, guid: 1a5bc86e4a4d57e479843c375e62362e, type: 2}
      propertyPath: m_Name
      value: ListElement (1)
      objectReference: {fileID: 0}
    m_RemovedComponents: []
  m_ParentPrefab: {fileID: 100100000, guid: 1a5bc86e4a4d57e479843c375e62362e, type: 2}
  m_IsPrefabParent: 0
--- !u!224 &123418359 stripped
RectTransform:
  m_PrefabParentObject: {fileID: 224487962221629340, guid: 1a5bc86e4a4d57e479843c375e62362e,
    type: 2}
  m_PrefabInternal: {fileID: 123418358}
--- !u!114 &123418360 stripped
MonoBehaviour:
  m_PrefabParentObject: {fileID: 114025166571595630, guid: 1a5bc86e4a4d57e479843c375e62362e,
    type: 2}
  m_PrefabInternal: {fileID: 123418358}
  m_Script: {fileID: 11500000, guid: 968669a9702a8804e8037653e88680c0, type: 3}
--- !u!1001 &134672931
Prefab:
  m_ObjectHideFlags: 0
  serializedVersion: 2
  m_Modification:
    m_TransformParent: {fileID: 1078361835}
    m_Modifications:
    - target: {fileID: 224487962221629340, guid: 1a5bc86e4a4d57e479843c375e62362e,
        type: 2}
      propertyPath: m_LocalPosition.x
      value: 0
      objectReference: {fileID: 0}
    - target: {fileID: 224487962221629340, guid: 1a5bc86e4a4d57e479843c375e62362e,
        type: 2}
      propertyPath: m_LocalPosition.y
      value: 0
      objectReference: {fileID: 0}
    - target: {fileID: 224487962221629340, guid: 1a5bc86e4a4d57e479843c375e62362e,
        type: 2}
      propertyPath: m_LocalPosition.z
      value: 0
      objectReference: {fileID: 0}
    - target: {fileID: 224487962221629340, guid: 1a5bc86e4a4d57e479843c375e62362e,
        type: 2}
      propertyPath: m_LocalRotation.x
      value: -0
      objectReference: {fileID: 0}
    - target: {fileID: 224487962221629340, guid: 1a5bc86e4a4d57e479843c375e62362e,
        type: 2}
      propertyPath: m_LocalRotation.y
      value: -0
      objectReference: {fileID: 0}
    - target: {fileID: 224487962221629340, guid: 1a5bc86e4a4d57e479843c375e62362e,
        type: 2}
      propertyPath: m_LocalRotation.z
      value: -0
      objectReference: {fileID: 0}
    - target: {fileID: 224487962221629340, guid: 1a5bc86e4a4d57e479843c375e62362e,
        type: 2}
      propertyPath: m_LocalRotation.w
      value: 1
      objectReference: {fileID: 0}
    - target: {fileID: 224487962221629340, guid: 1a5bc86e4a4d57e479843c375e62362e,
        type: 2}
      propertyPath: m_RootOrder
      value: 3
      objectReference: {fileID: 0}
    - target: {fileID: 224487962221629340, guid: 1a5bc86e4a4d57e479843c375e62362e,
        type: 2}
      propertyPath: m_AnchoredPosition.x
      value: 0
      objectReference: {fileID: 0}
    - target: {fileID: 224487962221629340, guid: 1a5bc86e4a4d57e479843c375e62362e,
        type: 2}
      propertyPath: m_AnchoredPosition.y
      value: 0
      objectReference: {fileID: 0}
    - target: {fileID: 224487962221629340, guid: 1a5bc86e4a4d57e479843c375e62362e,
        type: 2}
      propertyPath: m_SizeDelta.x
      value: 0
      objectReference: {fileID: 0}
    - target: {fileID: 224487962221629340, guid: 1a5bc86e4a4d57e479843c375e62362e,
        type: 2}
      propertyPath: m_SizeDelta.y
      value: 0
      objectReference: {fileID: 0}
    - target: {fileID: 224487962221629340, guid: 1a5bc86e4a4d57e479843c375e62362e,
        type: 2}
      propertyPath: m_AnchorMin.x
      value: 0
      objectReference: {fileID: 0}
    - target: {fileID: 224487962221629340, guid: 1a5bc86e4a4d57e479843c375e62362e,
        type: 2}
      propertyPath: m_AnchorMin.y
      value: 0
      objectReference: {fileID: 0}
    - target: {fileID: 224487962221629340, guid: 1a5bc86e4a4d57e479843c375e62362e,
        type: 2}
      propertyPath: m_AnchorMax.x
      value: 0
      objectReference: {fileID: 0}
    - target: {fileID: 224487962221629340, guid: 1a5bc86e4a4d57e479843c375e62362e,
        type: 2}
      propertyPath: m_AnchorMax.y
      value: 0
      objectReference: {fileID: 0}
    - target: {fileID: 224487962221629340, guid: 1a5bc86e4a4d57e479843c375e62362e,
        type: 2}
      propertyPath: m_Pivot.x
      value: 0.5
      objectReference: {fileID: 0}
    - target: {fileID: 224487962221629340, guid: 1a5bc86e4a4d57e479843c375e62362e,
        type: 2}
      propertyPath: m_Pivot.y
      value: 0.5
      objectReference: {fileID: 0}
    - target: {fileID: 1459290662469086, guid: 1a5bc86e4a4d57e479843c375e62362e, type: 2}
      propertyPath: m_Name
      value: ListElement (3)
      objectReference: {fileID: 0}
    m_RemovedComponents: []
  m_ParentPrefab: {fileID: 100100000, guid: 1a5bc86e4a4d57e479843c375e62362e, type: 2}
  m_IsPrefabParent: 0
--- !u!224 &134672932 stripped
RectTransform:
  m_PrefabParentObject: {fileID: 224487962221629340, guid: 1a5bc86e4a4d57e479843c375e62362e,
    type: 2}
  m_PrefabInternal: {fileID: 134672931}
--- !u!114 &134672933 stripped
MonoBehaviour:
  m_PrefabParentObject: {fileID: 114025166571595630, guid: 1a5bc86e4a4d57e479843c375e62362e,
    type: 2}
  m_PrefabInternal: {fileID: 134672931}
  m_Script: {fileID: 11500000, guid: 968669a9702a8804e8037653e88680c0, type: 3}
--- !u!1 &204846460
GameObject:
  m_ObjectHideFlags: 0
  m_PrefabParentObject: {fileID: 0}
  m_PrefabInternal: {fileID: 0}
  serializedVersion: 5
  m_Component:
  - component: {fileID: 204846464}
  - component: {fileID: 204846463}
  - component: {fileID: 204846462}
  - component: {fileID: 204846461}
  m_Layer: 5
  m_Name: Canvas
  m_TagString: Untagged
  m_Icon: {fileID: 0}
  m_NavMeshLayer: 0
  m_StaticEditorFlags: 0
  m_IsActive: 1
--- !u!114 &204846461
MonoBehaviour:
  m_ObjectHideFlags: 0
  m_PrefabParentObject: {fileID: 0}
  m_PrefabInternal: {fileID: 0}
  m_GameObject: {fileID: 204846460}
  m_Enabled: 1
  m_EditorHideFlags: 0
  m_Script: {fileID: 1301386320, guid: f70555f144d8491a825f0804e09c671c, type: 3}
  m_Name: 
  m_EditorClassIdentifier: 
  m_IgnoreReversedGraphics: 1
  m_BlockingObjects: 0
  m_BlockingMask:
    serializedVersion: 2
    m_Bits: 4294967295
--- !u!114 &204846462
MonoBehaviour:
  m_ObjectHideFlags: 0
  m_PrefabParentObject: {fileID: 0}
  m_PrefabInternal: {fileID: 0}
  m_GameObject: {fileID: 204846460}
  m_Enabled: 1
  m_EditorHideFlags: 0
  m_Script: {fileID: 1980459831, guid: f70555f144d8491a825f0804e09c671c, type: 3}
  m_Name: 
  m_EditorClassIdentifier: 
  m_UiScaleMode: 0
  m_ReferencePixelsPerUnit: 100
  m_ScaleFactor: 1
  m_ReferenceResolution: {x: 800, y: 600}
  m_ScreenMatchMode: 0
  m_MatchWidthOrHeight: 0
  m_PhysicalUnit: 3
  m_FallbackScreenDPI: 96
  m_DefaultSpriteDPI: 96
  m_DynamicPixelsPerUnit: 1
--- !u!223 &204846463
Canvas:
  m_ObjectHideFlags: 0
  m_PrefabParentObject: {fileID: 0}
  m_PrefabInternal: {fileID: 0}
  m_GameObject: {fileID: 204846460}
  m_Enabled: 1
  serializedVersion: 3
  m_RenderMode: 0
  m_Camera: {fileID: 0}
  m_PlaneDistance: 100
  m_PixelPerfect: 0
  m_ReceivesEvents: 1
  m_OverrideSorting: 0
  m_OverridePixelPerfect: 0
  m_SortingBucketNormalizedSize: 0
  m_AdditionalShaderChannelsFlag: 0
  m_SortingLayerID: 0
  m_SortingOrder: 0
  m_TargetDisplay: 0
--- !u!224 &204846464
RectTransform:
  m_ObjectHideFlags: 0
  m_PrefabParentObject: {fileID: 0}
  m_PrefabInternal: {fileID: 0}
  m_GameObject: {fileID: 204846460}
  m_LocalRotation: {x: 0, y: 0, z: 0, w: 1}
  m_LocalPosition: {x: 0, y: 0, z: 0}
  m_LocalScale: {x: 0, y: 0, z: 0}
  m_Children:
  - {fileID: 1078361835}
  m_Father: {fileID: 0}
  m_RootOrder: 1
  m_LocalEulerAnglesHint: {x: 0, y: 0, z: 0}
  m_AnchorMin: {x: 0, y: 0}
  m_AnchorMax: {x: 0, y: 0}
  m_AnchoredPosition: {x: 0, y: 0}
  m_SizeDelta: {x: 0, y: 0}
  m_Pivot: {x: 0, y: 0}
--- !u!1001 &688352983
Prefab:
  m_ObjectHideFlags: 0
  serializedVersion: 2
  m_Modification:
    m_TransformParent: {fileID: 1078361835}
    m_Modifications:
    - target: {fileID: 224487962221629340, guid: 1a5bc86e4a4d57e479843c375e62362e,
        type: 2}
      propertyPath: m_LocalPosition.x
      value: 0
      objectReference: {fileID: 0}
    - target: {fileID: 224487962221629340, guid: 1a5bc86e4a4d57e479843c375e62362e,
        type: 2}
      propertyPath: m_LocalPosition.y
      value: 0
      objectReference: {fileID: 0}
    - target: {fileID: 224487962221629340, guid: 1a5bc86e4a4d57e479843c375e62362e,
        type: 2}
      propertyPath: m_LocalPosition.z
      value: 0
      objectReference: {fileID: 0}
    - target: {fileID: 224487962221629340, guid: 1a5bc86e4a4d57e479843c375e62362e,
        type: 2}
      propertyPath: m_LocalRotation.x
      value: -0
      objectReference: {fileID: 0}
    - target: {fileID: 224487962221629340, guid: 1a5bc86e4a4d57e479843c375e62362e,
        type: 2}
      propertyPath: m_LocalRotation.y
      value: -0
      objectReference: {fileID: 0}
    - target: {fileID: 224487962221629340, guid: 1a5bc86e4a4d57e479843c375e62362e,
        type: 2}
      propertyPath: m_LocalRotation.z
      value: -0
      objectReference: {fileID: 0}
    - target: {fileID: 224487962221629340, guid: 1a5bc86e4a4d57e479843c375e62362e,
        type: 2}
      propertyPath: m_LocalRotation.w
      value: 1
      objectReference: {fileID: 0}
    - target: {fileID: 224487962221629340, guid: 1a5bc86e4a4d57e479843c375e62362e,
        type: 2}
      propertyPath: m_RootOrder
      value: 2
      objectReference: {fileID: 0}
    - target: {fileID: 224487962221629340, guid: 1a5bc86e4a4d57e479843c375e62362e,
        type: 2}
      propertyPath: m_AnchoredPosition.x
      value: 0
      objectReference: {fileID: 0}
    - target: {fileID: 224487962221629340, guid: 1a5bc86e4a4d57e479843c375e62362e,
        type: 2}
      propertyPath: m_AnchoredPosition.y
      value: 0
      objectReference: {fileID: 0}
    - target: {fileID: 224487962221629340, guid: 1a5bc86e4a4d57e479843c375e62362e,
        type: 2}
      propertyPath: m_SizeDelta.x
      value: 0
      objectReference: {fileID: 0}
    - target: {fileID: 224487962221629340, guid: 1a5bc86e4a4d57e479843c375e62362e,
        type: 2}
      propertyPath: m_SizeDelta.y
      value: 0
      objectReference: {fileID: 0}
    - target: {fileID: 224487962221629340, guid: 1a5bc86e4a4d57e479843c375e62362e,
        type: 2}
      propertyPath: m_AnchorMin.x
      value: 0
      objectReference: {fileID: 0}
    - target: {fileID: 224487962221629340, guid: 1a5bc86e4a4d57e479843c375e62362e,
        type: 2}
      propertyPath: m_AnchorMin.y
      value: 0
      objectReference: {fileID: 0}
    - target: {fileID: 224487962221629340, guid: 1a5bc86e4a4d57e479843c375e62362e,
        type: 2}
      propertyPath: m_AnchorMax.x
      value: 0
      objectReference: {fileID: 0}
    - target: {fileID: 224487962221629340, guid: 1a5bc86e4a4d57e479843c375e62362e,
        type: 2}
      propertyPath: m_AnchorMax.y
      value: 0
      objectReference: {fileID: 0}
    - target: {fileID: 224487962221629340, guid: 1a5bc86e4a4d57e479843c375e62362e,
        type: 2}
      propertyPath: m_Pivot.x
      value: 0.5
      objectReference: {fileID: 0}
    - target: {fileID: 224487962221629340, guid: 1a5bc86e4a4d57e479843c375e62362e,
        type: 2}
      propertyPath: m_Pivot.y
      value: 0.5
      objectReference: {fileID: 0}
    - target: {fileID: 1459290662469086, guid: 1a5bc86e4a4d57e479843c375e62362e, type: 2}
      propertyPath: m_Name
      value: ListElement (2)
      objectReference: {fileID: 0}
    m_RemovedComponents: []
  m_ParentPrefab: {fileID: 100100000, guid: 1a5bc86e4a4d57e479843c375e62362e, type: 2}
  m_IsPrefabParent: 0
--- !u!224 &688352984 stripped
RectTransform:
  m_PrefabParentObject: {fileID: 224487962221629340, guid: 1a5bc86e4a4d57e479843c375e62362e,
    type: 2}
  m_PrefabInternal: {fileID: 688352983}
--- !u!114 &688352985 stripped
MonoBehaviour:
  m_PrefabParentObject: {fileID: 114025166571595630, guid: 1a5bc86e4a4d57e479843c375e62362e,
    type: 2}
  m_PrefabInternal: {fileID: 688352983}
  m_Script: {fileID: 11500000, guid: 968669a9702a8804e8037653e88680c0, type: 3}
--- !u!1 &1051051499
GameObject:
  m_ObjectHideFlags: 0
  m_PrefabParentObject: {fileID: 0}
  m_PrefabInternal: {fileID: 0}
  serializedVersion: 5
  m_Component:
  - component: {fileID: 1051051503}
  - component: {fileID: 1051051502}
  - component: {fileID: 1051051501}
  - component: {fileID: 1051051500}
  m_Layer: 0
  m_Name: Main Camera
  m_TagString: MainCamera
  m_Icon: {fileID: 0}
  m_NavMeshLayer: 0
  m_StaticEditorFlags: 0
  m_IsActive: 1
--- !u!81 &1051051500
AudioListener:
  m_ObjectHideFlags: 0
  m_PrefabParentObject: {fileID: 0}
  m_PrefabInternal: {fileID: 0}
  m_GameObject: {fileID: 1051051499}
  m_Enabled: 1
--- !u!124 &1051051501
Behaviour:
  m_ObjectHideFlags: 0
  m_PrefabParentObject: {fileID: 0}
  m_PrefabInternal: {fileID: 0}
  m_GameObject: {fileID: 1051051499}
  m_Enabled: 1
--- !u!20 &1051051502
Camera:
  m_ObjectHideFlags: 0
  m_PrefabParentObject: {fileID: 0}
  m_PrefabInternal: {fileID: 0}
  m_GameObject: {fileID: 1051051499}
  m_Enabled: 1
  serializedVersion: 2
  m_ClearFlags: 1
  m_BackGroundColor: {r: 0.19215687, g: 0.3019608, b: 0.4745098, a: 0}
  m_NormalizedViewPortRect:
    serializedVersion: 2
    x: 0
    y: 0
    width: 1
    height: 1
  near clip plane: 0.3
  far clip plane: 1000
  field of view: 60
  orthographic: 1
  orthographic size: 5
  m_Depth: -1
  m_CullingMask:
    serializedVersion: 2
    m_Bits: 4294967295
  m_RenderingPath: -1
  m_TargetTexture: {fileID: 0}
  m_TargetDisplay: 0
  m_TargetEye: 3
  m_HDR: 1
  m_AllowMSAA: 1
  m_AllowDynamicResolution: 0
  m_ForceIntoRT: 0
  m_OcclusionCulling: 1
  m_StereoConvergence: 10
  m_StereoSeparation: 0.022
--- !u!4 &1051051503
Transform:
  m_ObjectHideFlags: 0
  m_PrefabParentObject: {fileID: 0}
  m_PrefabInternal: {fileID: 0}
  m_GameObject: {fileID: 1051051499}
  m_LocalRotation: {x: 0, y: 0, z: 0, w: 1}
  m_LocalPosition: {x: 0, y: 0, z: -10}
  m_LocalScale: {x: 1, y: 1, z: 1}
  m_Children: []
  m_Father: {fileID: 0}
  m_RootOrder: 0
  m_LocalEulerAnglesHint: {x: 0, y: 0, z: 0}
--- !u!1 &1078361834
GameObject:
  m_ObjectHideFlags: 0
  m_PrefabParentObject: {fileID: 0}
  m_PrefabInternal: {fileID: 0}
  serializedVersion: 5
  m_Component:
  - component: {fileID: 1078361835}
  - component: {fileID: 1078361837}
  - component: {fileID: 1078361836}
  m_Layer: 5
  m_Name: ListDisplay
  m_TagString: Untagged
  m_Icon: {fileID: 0}
  m_NavMeshLayer: 0
  m_StaticEditorFlags: 0
  m_IsActive: 1
--- !u!224 &1078361835
RectTransform:
  m_ObjectHideFlags: 0
  m_PrefabParentObject: {fileID: 0}
  m_PrefabInternal: {fileID: 0}
  m_GameObject: {fileID: 1078361834}
  m_LocalRotation: {x: 0, y: 0, z: 0, w: 1}
  m_LocalPosition: {x: 0, y: 0, z: 0}
  m_LocalScale: {x: 1, y: 1, z: 1}
  m_Children:
  - {fileID: 2137922767}
  - {fileID: 123418359}
  - {fileID: 688352984}
  - {fileID: 134672932}
  - {fileID: 1525958453}
  - {fileID: 1418678207}
  - {fileID: 1913283930}
  - {fileID: 1662396120}
  - {fileID: 1590298621}
  - {fileID: 1449004962}
  m_Father: {fileID: 204846464}
  m_RootOrder: 0
  m_LocalEulerAnglesHint: {x: 0, y: 0, z: 0}
  m_AnchorMin: {x: 0, y: 0}
  m_AnchorMax: {x: 1, y: 1}
  m_AnchoredPosition: {x: 0, y: 0}
  m_SizeDelta: {x: 0, y: 0}
  m_Pivot: {x: 0.5, y: 0.5}
--- !u!114 &1078361836
MonoBehaviour:
  m_ObjectHideFlags: 0
  m_PrefabParentObject: {fileID: 0}
  m_PrefabInternal: {fileID: 0}
  m_GameObject: {fileID: 1078361834}
  m_Enabled: 1
  m_EditorHideFlags: 0
  m_Script: {fileID: -2095666955, guid: f70555f144d8491a825f0804e09c671c, type: 3}
  m_Name: 
  m_EditorClassIdentifier: 
  m_Padding:
    m_Left: 0
    m_Right: 0
    m_Top: 0
    m_Bottom: 0
  m_ChildAlignment: 4
  m_StartCorner: 0
  m_StartAxis: 0
  m_CellSize: {x: 50, y: 50}
  m_Spacing: {x: 10, y: 10}
  m_Constraint: 0
  m_ConstraintCount: 2
--- !u!114 &1078361837
MonoBehaviour:
  m_ObjectHideFlags: 0
  m_PrefabParentObject: {fileID: 0}
  m_PrefabInternal: {fileID: 0}
  m_GameObject: {fileID: 1078361834}
  m_Enabled: 1
  m_EditorHideFlags: 0
  m_Script: {fileID: 11500000, guid: 109c66e1a90416f4783cc696fc911f57, type: 3}
  m_Name: 
  m_EditorClassIdentifier: 
  _updateInterval: 1
  _elementDisplays:
  - {fileID: 2137922768}
  - {fileID: 123418360}
  - {fileID: 688352985}
  - {fileID: 134672933}
  - {fileID: 1525958454}
  - {fileID: 1418678208}
  - {fileID: 1913283931}
  - {fileID: 1662396121}
  - {fileID: 1590298622}
  - {fileID: 1449004963}
--- !u!1 &1404299238
GameObject:
  m_ObjectHideFlags: 0
  m_PrefabParentObject: {fileID: 0}
  m_PrefabInternal: {fileID: 0}
  serializedVersion: 5
  m_Component:
  - component: {fileID: 1404299241}
  - component: {fileID: 1404299240}
  - component: {fileID: 1404299239}
  m_Layer: 0
  m_Name: EventSystem
  m_TagString: Untagged
  m_Icon: {fileID: 0}
  m_NavMeshLayer: 0
  m_StaticEditorFlags: 0
  m_IsActive: 1
--- !u!114 &1404299239
MonoBehaviour:
  m_ObjectHideFlags: 0
  m_PrefabParentObject: {fileID: 0}
  m_PrefabInternal: {fileID: 0}
  m_GameObject: {fileID: 1404299238}
  m_Enabled: 1
  m_EditorHideFlags: 0
  m_Script: {fileID: 1077351063, guid: f70555f144d8491a825f0804e09c671c, type: 3}
  m_Name: 
  m_EditorClassIdentifier: 
  m_HorizontalAxis: Horizontal
  m_VerticalAxis: Vertical
  m_SubmitButton: Submit
  m_CancelButton: Cancel
  m_InputActionsPerSecond: 10
  m_RepeatDelay: 0.5
  m_ForceModuleActive: 0
--- !u!114 &1404299240
MonoBehaviour:
  m_ObjectHideFlags: 0
  m_PrefabParentObject: {fileID: 0}
  m_PrefabInternal: {fileID: 0}
  m_GameObject: {fileID: 1404299238}
  m_Enabled: 1
  m_EditorHideFlags: 0
  m_Script: {fileID: -619905303, guid: f70555f144d8491a825f0804e09c671c, type: 3}
  m_Name: 
  m_EditorClassIdentifier: 
  m_FirstSelected: {fileID: 0}
  m_sendNavigationEvents: 1
  m_DragThreshold: 5
--- !u!4 &1404299241
Transform:
  m_ObjectHideFlags: 0
  m_PrefabParentObject: {fileID: 0}
  m_PrefabInternal: {fileID: 0}
  m_GameObject: {fileID: 1404299238}
  m_LocalRotation: {x: 0, y: 0, z: 0, w: 1}
  m_LocalPosition: {x: 0, y: 0, z: 0}
  m_LocalScale: {x: 1, y: 1, z: 1}
  m_Children: []
  m_Father: {fileID: 0}
  m_RootOrder: 2
  m_LocalEulerAnglesHint: {x: 0, y: 0, z: 0}
--- !u!1001 &1418678206
Prefab:
  m_ObjectHideFlags: 0
  serializedVersion: 2
  m_Modification:
    m_TransformParent: {fileID: 1078361835}
    m_Modifications:
    - target: {fileID: 224487962221629340, guid: 1a5bc86e4a4d57e479843c375e62362e,
        type: 2}
      propertyPath: m_LocalPosition.x
      value: 0
      objectReference: {fileID: 0}
    - target: {fileID: 224487962221629340, guid: 1a5bc86e4a4d57e479843c375e62362e,
        type: 2}
      propertyPath: m_LocalPosition.y
      value: 0
      objectReference: {fileID: 0}
    - target: {fileID: 224487962221629340, guid: 1a5bc86e4a4d57e479843c375e62362e,
        type: 2}
      propertyPath: m_LocalPosition.z
      value: 0
      objectReference: {fileID: 0}
    - target: {fileID: 224487962221629340, guid: 1a5bc86e4a4d57e479843c375e62362e,
        type: 2}
      propertyPath: m_LocalRotation.x
      value: -0
      objectReference: {fileID: 0}
    - target: {fileID: 224487962221629340, guid: 1a5bc86e4a4d57e479843c375e62362e,
        type: 2}
      propertyPath: m_LocalRotation.y
      value: -0
      objectReference: {fileID: 0}
    - target: {fileID: 224487962221629340, guid: 1a5bc86e4a4d57e479843c375e62362e,
        type: 2}
      propertyPath: m_LocalRotation.z
      value: -0
      objectReference: {fileID: 0}
    - target: {fileID: 224487962221629340, guid: 1a5bc86e4a4d57e479843c375e62362e,
        type: 2}
      propertyPath: m_LocalRotation.w
      value: 1
      objectReference: {fileID: 0}
    - target: {fileID: 224487962221629340, guid: 1a5bc86e4a4d57e479843c375e62362e,
        type: 2}
      propertyPath: m_RootOrder
      value: 5
      objectReference: {fileID: 0}
    - target: {fileID: 224487962221629340, guid: 1a5bc86e4a4d57e479843c375e62362e,
        type: 2}
      propertyPath: m_AnchoredPosition.x
      value: 0
      objectReference: {fileID: 0}
    - target: {fileID: 224487962221629340, guid: 1a5bc86e4a4d57e479843c375e62362e,
        type: 2}
      propertyPath: m_AnchoredPosition.y
      value: 0
      objectReference: {fileID: 0}
    - target: {fileID: 224487962221629340, guid: 1a5bc86e4a4d57e479843c375e62362e,
        type: 2}
      propertyPath: m_SizeDelta.x
      value: 0
      objectReference: {fileID: 0}
    - target: {fileID: 224487962221629340, guid: 1a5bc86e4a4d57e479843c375e62362e,
        type: 2}
      propertyPath: m_SizeDelta.y
      value: 0
      objectReference: {fileID: 0}
    - target: {fileID: 224487962221629340, guid: 1a5bc86e4a4d57e479843c375e62362e,
        type: 2}
      propertyPath: m_AnchorMin.x
      value: 0
      objectReference: {fileID: 0}
    - target: {fileID: 224487962221629340, guid: 1a5bc86e4a4d57e479843c375e62362e,
        type: 2}
      propertyPath: m_AnchorMin.y
      value: 0
      objectReference: {fileID: 0}
    - target: {fileID: 224487962221629340, guid: 1a5bc86e4a4d57e479843c375e62362e,
        type: 2}
      propertyPath: m_AnchorMax.x
      value: 0
      objectReference: {fileID: 0}
    - target: {fileID: 224487962221629340, guid: 1a5bc86e4a4d57e479843c375e62362e,
        type: 2}
      propertyPath: m_AnchorMax.y
      value: 0
      objectReference: {fileID: 0}
    - target: {fileID: 224487962221629340, guid: 1a5bc86e4a4d57e479843c375e62362e,
        type: 2}
      propertyPath: m_Pivot.x
      value: 0.5
      objectReference: {fileID: 0}
    - target: {fileID: 224487962221629340, guid: 1a5bc86e4a4d57e479843c375e62362e,
        type: 2}
      propertyPath: m_Pivot.y
      value: 0.5
      objectReference: {fileID: 0}
    - target: {fileID: 1459290662469086, guid: 1a5bc86e4a4d57e479843c375e62362e, type: 2}
      propertyPath: m_Name
      value: ListElement (5)
      objectReference: {fileID: 0}
    m_RemovedComponents: []
  m_ParentPrefab: {fileID: 100100000, guid: 1a5bc86e4a4d57e479843c375e62362e, type: 2}
  m_IsPrefabParent: 0
--- !u!224 &1418678207 stripped
RectTransform:
  m_PrefabParentObject: {fileID: 224487962221629340, guid: 1a5bc86e4a4d57e479843c375e62362e,
    type: 2}
  m_PrefabInternal: {fileID: 1418678206}
--- !u!114 &1418678208 stripped
MonoBehaviour:
  m_PrefabParentObject: {fileID: 114025166571595630, guid: 1a5bc86e4a4d57e479843c375e62362e,
    type: 2}
  m_PrefabInternal: {fileID: 1418678206}
  m_Script: {fileID: 11500000, guid: 968669a9702a8804e8037653e88680c0, type: 3}
--- !u!1001 &1449004961
Prefab:
  m_ObjectHideFlags: 0
  serializedVersion: 2
  m_Modification:
    m_TransformParent: {fileID: 1078361835}
    m_Modifications:
    - target: {fileID: 224487962221629340, guid: 1a5bc86e4a4d57e479843c375e62362e,
        type: 2}
      propertyPath: m_LocalPosition.x
      value: 0
      objectReference: {fileID: 0}
    - target: {fileID: 224487962221629340, guid: 1a5bc86e4a4d57e479843c375e62362e,
        type: 2}
      propertyPath: m_LocalPosition.y
      value: 0
      objectReference: {fileID: 0}
    - target: {fileID: 224487962221629340, guid: 1a5bc86e4a4d57e479843c375e62362e,
        type: 2}
      propertyPath: m_LocalPosition.z
      value: 0
      objectReference: {fileID: 0}
    - target: {fileID: 224487962221629340, guid: 1a5bc86e4a4d57e479843c375e62362e,
        type: 2}
      propertyPath: m_LocalRotation.x
      value: -0
      objectReference: {fileID: 0}
    - target: {fileID: 224487962221629340, guid: 1a5bc86e4a4d57e479843c375e62362e,
        type: 2}
      propertyPath: m_LocalRotation.y
      value: -0
      objectReference: {fileID: 0}
    - target: {fileID: 224487962221629340, guid: 1a5bc86e4a4d57e479843c375e62362e,
        type: 2}
      propertyPath: m_LocalRotation.z
      value: -0
      objectReference: {fileID: 0}
    - target: {fileID: 224487962221629340, guid: 1a5bc86e4a4d57e479843c375e62362e,
        type: 2}
      propertyPath: m_LocalRotation.w
      value: 1
      objectReference: {fileID: 0}
    - target: {fileID: 224487962221629340, guid: 1a5bc86e4a4d57e479843c375e62362e,
        type: 2}
      propertyPath: m_RootOrder
      value: 9
      objectReference: {fileID: 0}
    - target: {fileID: 224487962221629340, guid: 1a5bc86e4a4d57e479843c375e62362e,
        type: 2}
      propertyPath: m_AnchoredPosition.x
      value: 0
      objectReference: {fileID: 0}
    - target: {fileID: 224487962221629340, guid: 1a5bc86e4a4d57e479843c375e62362e,
        type: 2}
      propertyPath: m_AnchoredPosition.y
      value: 0
      objectReference: {fileID: 0}
    - target: {fileID: 224487962221629340, guid: 1a5bc86e4a4d57e479843c375e62362e,
        type: 2}
      propertyPath: m_SizeDelta.x
      value: 0
      objectReference: {fileID: 0}
    - target: {fileID: 224487962221629340, guid: 1a5bc86e4a4d57e479843c375e62362e,
        type: 2}
      propertyPath: m_SizeDelta.y
      value: 0
      objectReference: {fileID: 0}
    - target: {fileID: 224487962221629340, guid: 1a5bc86e4a4d57e479843c375e62362e,
        type: 2}
      propertyPath: m_AnchorMin.x
      value: 0
      objectReference: {fileID: 0}
    - target: {fileID: 224487962221629340, guid: 1a5bc86e4a4d57e479843c375e62362e,
        type: 2}
      propertyPath: m_AnchorMin.y
      value: 0
      objectReference: {fileID: 0}
    - target: {fileID: 224487962221629340, guid: 1a5bc86e4a4d57e479843c375e62362e,
        type: 2}
      propertyPath: m_AnchorMax.x
      value: 0
      objectReference: {fileID: 0}
    - target: {fileID: 224487962221629340, guid: 1a5bc86e4a4d57e479843c375e62362e,
        type: 2}
      propertyPath: m_AnchorMax.y
      value: 0
      objectReference: {fileID: 0}
    - target: {fileID: 224487962221629340, guid: 1a5bc86e4a4d57e479843c375e62362e,
        type: 2}
      propertyPath: m_Pivot.x
      value: 0.5
      objectReference: {fileID: 0}
    - target: {fileID: 224487962221629340, guid: 1a5bc86e4a4d57e479843c375e62362e,
        type: 2}
      propertyPath: m_Pivot.y
      value: 0.5
      objectReference: {fileID: 0}
    - target: {fileID: 1459290662469086, guid: 1a5bc86e4a4d57e479843c375e62362e, type: 2}
      propertyPath: m_Name
      value: ListElement (9)
      objectReference: {fileID: 0}
    m_RemovedComponents: []
  m_ParentPrefab: {fileID: 100100000, guid: 1a5bc86e4a4d57e479843c375e62362e, type: 2}
  m_IsPrefabParent: 0
--- !u!224 &1449004962 stripped
RectTransform:
  m_PrefabParentObject: {fileID: 224487962221629340, guid: 1a5bc86e4a4d57e479843c375e62362e,
    type: 2}
  m_PrefabInternal: {fileID: 1449004961}
--- !u!114 &1449004963 stripped
MonoBehaviour:
  m_PrefabParentObject: {fileID: 114025166571595630, guid: 1a5bc86e4a4d57e479843c375e62362e,
    type: 2}
  m_PrefabInternal: {fileID: 1449004961}
  m_Script: {fileID: 11500000, guid: 968669a9702a8804e8037653e88680c0, type: 3}
--- !u!1001 &1525958452
Prefab:
  m_ObjectHideFlags: 0
  serializedVersion: 2
  m_Modification:
    m_TransformParent: {fileID: 1078361835}
    m_Modifications:
    - target: {fileID: 224487962221629340, guid: 1a5bc86e4a4d57e479843c375e62362e,
        type: 2}
      propertyPath: m_LocalPosition.x
      value: 0
      objectReference: {fileID: 0}
    - target: {fileID: 224487962221629340, guid: 1a5bc86e4a4d57e479843c375e62362e,
        type: 2}
      propertyPath: m_LocalPosition.y
      value: 0
      objectReference: {fileID: 0}
    - target: {fileID: 224487962221629340, guid: 1a5bc86e4a4d57e479843c375e62362e,
        type: 2}
      propertyPath: m_LocalPosition.z
      value: 0
      objectReference: {fileID: 0}
    - target: {fileID: 224487962221629340, guid: 1a5bc86e4a4d57e479843c375e62362e,
        type: 2}
      propertyPath: m_LocalRotation.x
      value: -0
      objectReference: {fileID: 0}
    - target: {fileID: 224487962221629340, guid: 1a5bc86e4a4d57e479843c375e62362e,
        type: 2}
      propertyPath: m_LocalRotation.y
      value: -0
      objectReference: {fileID: 0}
    - target: {fileID: 224487962221629340, guid: 1a5bc86e4a4d57e479843c375e62362e,
        type: 2}
      propertyPath: m_LocalRotation.z
      value: -0
      objectReference: {fileID: 0}
    - target: {fileID: 224487962221629340, guid: 1a5bc86e4a4d57e479843c375e62362e,
        type: 2}
      propertyPath: m_LocalRotation.w
      value: 1
      objectReference: {fileID: 0}
    - target: {fileID: 224487962221629340, guid: 1a5bc86e4a4d57e479843c375e62362e,
        type: 2}
      propertyPath: m_RootOrder
      value: 4
      objectReference: {fileID: 0}
    - target: {fileID: 224487962221629340, guid: 1a5bc86e4a4d57e479843c375e62362e,
        type: 2}
      propertyPath: m_AnchoredPosition.x
      value: 0
      objectReference: {fileID: 0}
    - target: {fileID: 224487962221629340, guid: 1a5bc86e4a4d57e479843c375e62362e,
        type: 2}
      propertyPath: m_AnchoredPosition.y
      value: 0
      objectReference: {fileID: 0}
    - target: {fileID: 224487962221629340, guid: 1a5bc86e4a4d57e479843c375e62362e,
        type: 2}
      propertyPath: m_SizeDelta.x
      value: 0
      objectReference: {fileID: 0}
    - target: {fileID: 224487962221629340, guid: 1a5bc86e4a4d57e479843c375e62362e,
        type: 2}
      propertyPath: m_SizeDelta.y
      value: 0
      objectReference: {fileID: 0}
    - target: {fileID: 224487962221629340, guid: 1a5bc86e4a4d57e479843c375e62362e,
        type: 2}
      propertyPath: m_AnchorMin.x
      value: 0
      objectReference: {fileID: 0}
    - target: {fileID: 224487962221629340, guid: 1a5bc86e4a4d57e479843c375e62362e,
        type: 2}
      propertyPath: m_AnchorMin.y
      value: 0
      objectReference: {fileID: 0}
    - target: {fileID: 224487962221629340, guid: 1a5bc86e4a4d57e479843c375e62362e,
        type: 2}
      propertyPath: m_AnchorMax.x
      value: 0
      objectReference: {fileID: 0}
    - target: {fileID: 224487962221629340, guid: 1a5bc86e4a4d57e479843c375e62362e,
        type: 2}
      propertyPath: m_AnchorMax.y
      value: 0
      objectReference: {fileID: 0}
    - target: {fileID: 224487962221629340, guid: 1a5bc86e4a4d57e479843c375e62362e,
        type: 2}
      propertyPath: m_Pivot.x
      value: 0.5
      objectReference: {fileID: 0}
    - target: {fileID: 224487962221629340, guid: 1a5bc86e4a4d57e479843c375e62362e,
        type: 2}
      propertyPath: m_Pivot.y
      value: 0.5
      objectReference: {fileID: 0}
    - target: {fileID: 1459290662469086, guid: 1a5bc86e4a4d57e479843c375e62362e, type: 2}
      propertyPath: m_Name
      value: ListElement (4)
      objectReference: {fileID: 0}
    m_RemovedComponents: []
  m_ParentPrefab: {fileID: 100100000, guid: 1a5bc86e4a4d57e479843c375e62362e, type: 2}
  m_IsPrefabParent: 0
--- !u!224 &1525958453 stripped
RectTransform:
  m_PrefabParentObject: {fileID: 224487962221629340, guid: 1a5bc86e4a4d57e479843c375e62362e,
    type: 2}
  m_PrefabInternal: {fileID: 1525958452}
--- !u!114 &1525958454 stripped
MonoBehaviour:
  m_PrefabParentObject: {fileID: 114025166571595630, guid: 1a5bc86e4a4d57e479843c375e62362e,
    type: 2}
  m_PrefabInternal: {fileID: 1525958452}
  m_Script: {fileID: 11500000, guid: 968669a9702a8804e8037653e88680c0, type: 3}
--- !u!1001 &1590298620
Prefab:
  m_ObjectHideFlags: 0
  serializedVersion: 2
  m_Modification:
    m_TransformParent: {fileID: 1078361835}
    m_Modifications:
    - target: {fileID: 224487962221629340, guid: 1a5bc86e4a4d57e479843c375e62362e,
        type: 2}
      propertyPath: m_LocalPosition.x
      value: 0
      objectReference: {fileID: 0}
    - target: {fileID: 224487962221629340, guid: 1a5bc86e4a4d57e479843c375e62362e,
        type: 2}
      propertyPath: m_LocalPosition.y
      value: 0
      objectReference: {fileID: 0}
    - target: {fileID: 224487962221629340, guid: 1a5bc86e4a4d57e479843c375e62362e,
        type: 2}
      propertyPath: m_LocalPosition.z
      value: 0
      objectReference: {fileID: 0}
    - target: {fileID: 224487962221629340, guid: 1a5bc86e4a4d57e479843c375e62362e,
        type: 2}
      propertyPath: m_LocalRotation.x
      value: -0
      objectReference: {fileID: 0}
    - target: {fileID: 224487962221629340, guid: 1a5bc86e4a4d57e479843c375e62362e,
        type: 2}
      propertyPath: m_LocalRotation.y
      value: -0
      objectReference: {fileID: 0}
    - target: {fileID: 224487962221629340, guid: 1a5bc86e4a4d57e479843c375e62362e,
        type: 2}
      propertyPath: m_LocalRotation.z
      value: -0
      objectReference: {fileID: 0}
    - target: {fileID: 224487962221629340, guid: 1a5bc86e4a4d57e479843c375e62362e,
        type: 2}
      propertyPath: m_LocalRotation.w
      value: 1
      objectReference: {fileID: 0}
    - target: {fileID: 224487962221629340, guid: 1a5bc86e4a4d57e479843c375e62362e,
        type: 2}
      propertyPath: m_RootOrder
      value: 8
      objectReference: {fileID: 0}
    - target: {fileID: 224487962221629340, guid: 1a5bc86e4a4d57e479843c375e62362e,
        type: 2}
      propertyPath: m_AnchoredPosition.x
      value: 0
      objectReference: {fileID: 0}
    - target: {fileID: 224487962221629340, guid: 1a5bc86e4a4d57e479843c375e62362e,
        type: 2}
      propertyPath: m_AnchoredPosition.y
      value: 0
      objectReference: {fileID: 0}
    - target: {fileID: 224487962221629340, guid: 1a5bc86e4a4d57e479843c375e62362e,
        type: 2}
      propertyPath: m_SizeDelta.x
      value: 0
      objectReference: {fileID: 0}
    - target: {fileID: 224487962221629340, guid: 1a5bc86e4a4d57e479843c375e62362e,
        type: 2}
      propertyPath: m_SizeDelta.y
      value: 0
      objectReference: {fileID: 0}
    - target: {fileID: 224487962221629340, guid: 1a5bc86e4a4d57e479843c375e62362e,
        type: 2}
      propertyPath: m_AnchorMin.x
      value: 0
      objectReference: {fileID: 0}
    - target: {fileID: 224487962221629340, guid: 1a5bc86e4a4d57e479843c375e62362e,
        type: 2}
      propertyPath: m_AnchorMin.y
      value: 0
      objectReference: {fileID: 0}
    - target: {fileID: 224487962221629340, guid: 1a5bc86e4a4d57e479843c375e62362e,
        type: 2}
      propertyPath: m_AnchorMax.x
      value: 0
      objectReference: {fileID: 0}
    - target: {fileID: 224487962221629340, guid: 1a5bc86e4a4d57e479843c375e62362e,
        type: 2}
      propertyPath: m_AnchorMax.y
      value: 0
      objectReference: {fileID: 0}
    - target: {fileID: 224487962221629340, guid: 1a5bc86e4a4d57e479843c375e62362e,
        type: 2}
      propertyPath: m_Pivot.x
      value: 0.5
      objectReference: {fileID: 0}
    - target: {fileID: 224487962221629340, guid: 1a5bc86e4a4d57e479843c375e62362e,
        type: 2}
      propertyPath: m_Pivot.y
      value: 0.5
      objectReference: {fileID: 0}
    - target: {fileID: 1459290662469086, guid: 1a5bc86e4a4d57e479843c375e62362e, type: 2}
      propertyPath: m_Name
      value: ListElement (8)
      objectReference: {fileID: 0}
    m_RemovedComponents: []
  m_ParentPrefab: {fileID: 100100000, guid: 1a5bc86e4a4d57e479843c375e62362e, type: 2}
  m_IsPrefabParent: 0
--- !u!224 &1590298621 stripped
RectTransform:
  m_PrefabParentObject: {fileID: 224487962221629340, guid: 1a5bc86e4a4d57e479843c375e62362e,
    type: 2}
  m_PrefabInternal: {fileID: 1590298620}
--- !u!114 &1590298622 stripped
MonoBehaviour:
  m_PrefabParentObject: {fileID: 114025166571595630, guid: 1a5bc86e4a4d57e479843c375e62362e,
    type: 2}
  m_PrefabInternal: {fileID: 1590298620}
  m_Script: {fileID: 11500000, guid: 968669a9702a8804e8037653e88680c0, type: 3}
--- !u!1001 &1662396119
Prefab:
  m_ObjectHideFlags: 0
  serializedVersion: 2
  m_Modification:
    m_TransformParent: {fileID: 1078361835}
    m_Modifications:
    - target: {fileID: 224487962221629340, guid: 1a5bc86e4a4d57e479843c375e62362e,
        type: 2}
      propertyPath: m_LocalPosition.x
      value: 0
      objectReference: {fileID: 0}
    - target: {fileID: 224487962221629340, guid: 1a5bc86e4a4d57e479843c375e62362e,
        type: 2}
      propertyPath: m_LocalPosition.y
      value: 0
      objectReference: {fileID: 0}
    - target: {fileID: 224487962221629340, guid: 1a5bc86e4a4d57e479843c375e62362e,
        type: 2}
      propertyPath: m_LocalPosition.z
      value: 0
      objectReference: {fileID: 0}
    - target: {fileID: 224487962221629340, guid: 1a5bc86e4a4d57e479843c375e62362e,
        type: 2}
      propertyPath: m_LocalRotation.x
      value: -0
      objectReference: {fileID: 0}
    - target: {fileID: 224487962221629340, guid: 1a5bc86e4a4d57e479843c375e62362e,
        type: 2}
      propertyPath: m_LocalRotation.y
      value: -0
      objectReference: {fileID: 0}
    - target: {fileID: 224487962221629340, guid: 1a5bc86e4a4d57e479843c375e62362e,
        type: 2}
      propertyPath: m_LocalRotation.z
      value: -0
      objectReference: {fileID: 0}
    - target: {fileID: 224487962221629340, guid: 1a5bc86e4a4d57e479843c375e62362e,
        type: 2}
      propertyPath: m_LocalRotation.w
      value: 1
      objectReference: {fileID: 0}
    - target: {fileID: 224487962221629340, guid: 1a5bc86e4a4d57e479843c375e62362e,
        type: 2}
      propertyPath: m_RootOrder
      value: 7
      objectReference: {fileID: 0}
    - target: {fileID: 224487962221629340, guid: 1a5bc86e4a4d57e479843c375e62362e,
        type: 2}
      propertyPath: m_AnchoredPosition.x
      value: 0
      objectReference: {fileID: 0}
    - target: {fileID: 224487962221629340, guid: 1a5bc86e4a4d57e479843c375e62362e,
        type: 2}
      propertyPath: m_AnchoredPosition.y
      value: 0
      objectReference: {fileID: 0}
    - target: {fileID: 224487962221629340, guid: 1a5bc86e4a4d57e479843c375e62362e,
        type: 2}
      propertyPath: m_SizeDelta.x
      value: 0
      objectReference: {fileID: 0}
    - target: {fileID: 224487962221629340, guid: 1a5bc86e4a4d57e479843c375e62362e,
        type: 2}
      propertyPath: m_SizeDelta.y
      value: 0
      objectReference: {fileID: 0}
    - target: {fileID: 224487962221629340, guid: 1a5bc86e4a4d57e479843c375e62362e,
        type: 2}
      propertyPath: m_AnchorMin.x
      value: 0
      objectReference: {fileID: 0}
    - target: {fileID: 224487962221629340, guid: 1a5bc86e4a4d57e479843c375e62362e,
        type: 2}
      propertyPath: m_AnchorMin.y
      value: 0
      objectReference: {fileID: 0}
    - target: {fileID: 224487962221629340, guid: 1a5bc86e4a4d57e479843c375e62362e,
        type: 2}
      propertyPath: m_AnchorMax.x
      value: 0
      objectReference: {fileID: 0}
    - target: {fileID: 224487962221629340, guid: 1a5bc86e4a4d57e479843c375e62362e,
        type: 2}
      propertyPath: m_AnchorMax.y
      value: 0
      objectReference: {fileID: 0}
    - target: {fileID: 224487962221629340, guid: 1a5bc86e4a4d57e479843c375e62362e,
        type: 2}
      propertyPath: m_Pivot.x
      value: 0.5
      objectReference: {fileID: 0}
    - target: {fileID: 224487962221629340, guid: 1a5bc86e4a4d57e479843c375e62362e,
        type: 2}
      propertyPath: m_Pivot.y
      value: 0.5
      objectReference: {fileID: 0}
    - target: {fileID: 1459290662469086, guid: 1a5bc86e4a4d57e479843c375e62362e, type: 2}
      propertyPath: m_Name
      value: ListElement (7)
      objectReference: {fileID: 0}
    m_RemovedComponents: []
  m_ParentPrefab: {fileID: 100100000, guid: 1a5bc86e4a4d57e479843c375e62362e, type: 2}
  m_IsPrefabParent: 0
--- !u!224 &1662396120 stripped
RectTransform:
  m_PrefabParentObject: {fileID: 224487962221629340, guid: 1a5bc86e4a4d57e479843c375e62362e,
    type: 2}
  m_PrefabInternal: {fileID: 1662396119}
--- !u!114 &1662396121 stripped
MonoBehaviour:
  m_PrefabParentObject: {fileID: 114025166571595630, guid: 1a5bc86e4a4d57e479843c375e62362e,
    type: 2}
  m_PrefabInternal: {fileID: 1662396119}
  m_Script: {fileID: 11500000, guid: 968669a9702a8804e8037653e88680c0, type: 3}
--- !u!1 &1674062899
GameObject:
  m_ObjectHideFlags: 0
  m_PrefabParentObject: {fileID: 0}
  m_PrefabInternal: {fileID: 0}
  serializedVersion: 5
  m_Component:
  - component: {fileID: 1674062900}
  - component: {fileID: 1674062901}
  m_Layer: 0
  m_Name: SortAlgorithm
  m_TagString: Untagged
  m_Icon: {fileID: 0}
  m_NavMeshLayer: 0
  m_StaticEditorFlags: 0
  m_IsActive: 1
--- !u!4 &1674062900
Transform:
  m_ObjectHideFlags: 0
  m_PrefabParentObject: {fileID: 0}
  m_PrefabInternal: {fileID: 0}
  m_GameObject: {fileID: 1674062899}
  m_LocalRotation: {x: 0, y: 0, z: 0, w: 1}
  m_LocalPosition: {x: 0, y: 0, z: 0}
  m_LocalScale: {x: 1, y: 1, z: 1}
  m_Children: []
  m_Father: {fileID: 0}
  m_RootOrder: 3
  m_LocalEulerAnglesHint: {x: 0, y: 0, z: 0}
--- !u!114 &1674062901
MonoBehaviour:
  m_ObjectHideFlags: 0
  m_PrefabParentObject: {fileID: 0}
  m_PrefabInternal: {fileID: 0}
  m_GameObject: {fileID: 1674062899}
  m_Enabled: 1
  m_EditorHideFlags: 0
  m_Script: {fileID: 11500000, guid: d8d9ea709b8d14b4f945fa0db795d314, type: 3}
  m_Name: 
  m_EditorClassIdentifier: 
  _unsortedList: 
--- !u!1001 &1913283929
Prefab:
  m_ObjectHideFlags: 0
  serializedVersion: 2
  m_Modification:
    m_TransformParent: {fileID: 1078361835}
    m_Modifications:
    - target: {fileID: 224487962221629340, guid: 1a5bc86e4a4d57e479843c375e62362e,
        type: 2}
      propertyPath: m_LocalPosition.x
      value: 0
      objectReference: {fileID: 0}
    - target: {fileID: 224487962221629340, guid: 1a5bc86e4a4d57e479843c375e62362e,
        type: 2}
      propertyPath: m_LocalPosition.y
      value: 0
      objectReference: {fileID: 0}
    - target: {fileID: 224487962221629340, guid: 1a5bc86e4a4d57e479843c375e62362e,
        type: 2}
      propertyPath: m_LocalPosition.z
      value: 0
      objectReference: {fileID: 0}
    - target: {fileID: 224487962221629340, guid: 1a5bc86e4a4d57e479843c375e62362e,
        type: 2}
      propertyPath: m_LocalRotation.x
      value: -0
      objectReference: {fileID: 0}
    - target: {fileID: 224487962221629340, guid: 1a5bc86e4a4d57e479843c375e62362e,
        type: 2}
      propertyPath: m_LocalRotation.y
      value: -0
      objectReference: {fileID: 0}
    - target: {fileID: 224487962221629340, guid: 1a5bc86e4a4d57e479843c375e62362e,
        type: 2}
      propertyPath: m_LocalRotation.z
      value: -0
      objectReference: {fileID: 0}
    - target: {fileID: 224487962221629340, guid: 1a5bc86e4a4d57e479843c375e62362e,
        type: 2}
      propertyPath: m_LocalRotation.w
      value: 1
      objectReference: {fileID: 0}
    - target: {fileID: 224487962221629340, guid: 1a5bc86e4a4d57e479843c375e62362e,
        type: 2}
      propertyPath: m_RootOrder
      value: 6
      objectReference: {fileID: 0}
    - target: {fileID: 224487962221629340, guid: 1a5bc86e4a4d57e479843c375e62362e,
        type: 2}
      propertyPath: m_AnchoredPosition.x
      value: 0
      objectReference: {fileID: 0}
    - target: {fileID: 224487962221629340, guid: 1a5bc86e4a4d57e479843c375e62362e,
        type: 2}
      propertyPath: m_AnchoredPosition.y
      value: 0
      objectReference: {fileID: 0}
    - target: {fileID: 224487962221629340, guid: 1a5bc86e4a4d57e479843c375e62362e,
        type: 2}
      propertyPath: m_SizeDelta.x
      value: 0
      objectReference: {fileID: 0}
    - target: {fileID: 224487962221629340, guid: 1a5bc86e4a4d57e479843c375e62362e,
        type: 2}
      propertyPath: m_SizeDelta.y
      value: 0
      objectReference: {fileID: 0}
    - target: {fileID: 224487962221629340, guid: 1a5bc86e4a4d57e479843c375e62362e,
        type: 2}
      propertyPath: m_AnchorMin.x
      value: 0
      objectReference: {fileID: 0}
    - target: {fileID: 224487962221629340, guid: 1a5bc86e4a4d57e479843c375e62362e,
        type: 2}
      propertyPath: m_AnchorMin.y
      value: 0
      objectReference: {fileID: 0}
    - target: {fileID: 224487962221629340, guid: 1a5bc86e4a4d57e479843c375e62362e,
        type: 2}
      propertyPath: m_AnchorMax.x
      value: 0
      objectReference: {fileID: 0}
    - target: {fileID: 224487962221629340, guid: 1a5bc86e4a4d57e479843c375e62362e,
        type: 2}
      propertyPath: m_AnchorMax.y
      value: 0
      objectReference: {fileID: 0}
    - target: {fileID: 224487962221629340, guid: 1a5bc86e4a4d57e479843c375e62362e,
        type: 2}
      propertyPath: m_Pivot.x
      value: 0.5
      objectReference: {fileID: 0}
    - target: {fileID: 224487962221629340, guid: 1a5bc86e4a4d57e479843c375e62362e,
        type: 2}
      propertyPath: m_Pivot.y
      value: 0.5
      objectReference: {fileID: 0}
    - target: {fileID: 1459290662469086, guid: 1a5bc86e4a4d57e479843c375e62362e, type: 2}
      propertyPath: m_Name
      value: ListElement (6)
      objectReference: {fileID: 0}
    m_RemovedComponents: []
  m_ParentPrefab: {fileID: 100100000, guid: 1a5bc86e4a4d57e479843c375e62362e, type: 2}
  m_IsPrefabParent: 0
--- !u!224 &1913283930 stripped
RectTransform:
  m_PrefabParentObject: {fileID: 224487962221629340, guid: 1a5bc86e4a4d57e479843c375e62362e,
    type: 2}
  m_PrefabInternal: {fileID: 1913283929}
--- !u!114 &1913283931 stripped
MonoBehaviour:
  m_PrefabParentObject: {fileID: 114025166571595630, guid: 1a5bc86e4a4d57e479843c375e62362e,
    type: 2}
  m_PrefabInternal: {fileID: 1913283929}
  m_Script: {fileID: 11500000, guid: 968669a9702a8804e8037653e88680c0, type: 3}
--- !u!1001 &2137922766
Prefab:
  m_ObjectHideFlags: 0
  serializedVersion: 2
  m_Modification:
    m_TransformParent: {fileID: 1078361835}
    m_Modifications:
    - target: {fileID: 224487962221629340, guid: 1a5bc86e4a4d57e479843c375e62362e,
        type: 2}
      propertyPath: m_LocalPosition.x
      value: 0
      objectReference: {fileID: 0}
    - target: {fileID: 224487962221629340, guid: 1a5bc86e4a4d57e479843c375e62362e,
        type: 2}
      propertyPath: m_LocalPosition.y
      value: 0
      objectReference: {fileID: 0}
    - target: {fileID: 224487962221629340, guid: 1a5bc86e4a4d57e479843c375e62362e,
        type: 2}
      propertyPath: m_LocalPosition.z
      value: 0
      objectReference: {fileID: 0}
    - target: {fileID: 224487962221629340, guid: 1a5bc86e4a4d57e479843c375e62362e,
        type: 2}
      propertyPath: m_LocalRotation.x
      value: -0
      objectReference: {fileID: 0}
    - target: {fileID: 224487962221629340, guid: 1a5bc86e4a4d57e479843c375e62362e,
        type: 2}
      propertyPath: m_LocalRotation.y
      value: -0
      objectReference: {fileID: 0}
    - target: {fileID: 224487962221629340, guid: 1a5bc86e4a4d57e479843c375e62362e,
        type: 2}
      propertyPath: m_LocalRotation.z
      value: -0
      objectReference: {fileID: 0}
    - target: {fileID: 224487962221629340, guid: 1a5bc86e4a4d57e479843c375e62362e,
        type: 2}
      propertyPath: m_LocalRotation.w
      value: 1
      objectReference: {fileID: 0}
    - target: {fileID: 224487962221629340, guid: 1a5bc86e4a4d57e479843c375e62362e,
        type: 2}
      propertyPath: m_RootOrder
      value: 0
      objectReference: {fileID: 0}
    - target: {fileID: 224487962221629340, guid: 1a5bc86e4a4d57e479843c375e62362e,
        type: 2}
      propertyPath: m_AnchoredPosition.x
      value: 0
      objectReference: {fileID: 0}
    - target: {fileID: 224487962221629340, guid: 1a5bc86e4a4d57e479843c375e62362e,
        type: 2}
      propertyPath: m_AnchoredPosition.y
      value: 0
      objectReference: {fileID: 0}
    - target: {fileID: 224487962221629340, guid: 1a5bc86e4a4d57e479843c375e62362e,
        type: 2}
      propertyPath: m_SizeDelta.x
      value: 0
      objectReference: {fileID: 0}
    - target: {fileID: 224487962221629340, guid: 1a5bc86e4a4d57e479843c375e62362e,
        type: 2}
      propertyPath: m_SizeDelta.y
      value: 0
      objectReference: {fileID: 0}
    - target: {fileID: 224487962221629340, guid: 1a5bc86e4a4d57e479843c375e62362e,
        type: 2}
      propertyPath: m_AnchorMin.x
      value: 0
      objectReference: {fileID: 0}
    - target: {fileID: 224487962221629340, guid: 1a5bc86e4a4d57e479843c375e62362e,
        type: 2}
      propertyPath: m_AnchorMin.y
      value: 0
      objectReference: {fileID: 0}
    - target: {fileID: 224487962221629340, guid: 1a5bc86e4a4d57e479843c375e62362e,
        type: 2}
      propertyPath: m_AnchorMax.x
      value: 0
      objectReference: {fileID: 0}
    - target: {fileID: 224487962221629340, guid: 1a5bc86e4a4d57e479843c375e62362e,
        type: 2}
      propertyPath: m_AnchorMax.y
      value: 0
      objectReference: {fileID: 0}
    - target: {fileID: 224487962221629340, guid: 1a5bc86e4a4d57e479843c375e62362e,
        type: 2}
      propertyPath: m_Pivot.x
      value: 0.5
      objectReference: {fileID: 0}
    - target: {fileID: 224487962221629340, guid: 1a5bc86e4a4d57e479843c375e62362e,
        type: 2}
      propertyPath: m_Pivot.y
      value: 0.5
      objectReference: {fileID: 0}
    m_RemovedComponents: []
  m_ParentPrefab: {fileID: 100100000, guid: 1a5bc86e4a4d57e479843c375e62362e, type: 2}
  m_IsPrefabParent: 0
--- !u!224 &2137922767 stripped
RectTransform:
  m_PrefabParentObject: {fileID: 224487962221629340, guid: 1a5bc86e4a4d57e479843c375e62362e,
    type: 2}
  m_PrefabInternal: {fileID: 2137922766}
--- !u!114 &2137922768 stripped
MonoBehaviour:
  m_PrefabParentObject: {fileID: 114025166571595630, guid: 1a5bc86e4a4d57e479843c375e62362e,
    type: 2}
  m_PrefabInternal: {fileID: 2137922766}
  m_Script: {fileID: 11500000, guid: 968669a9702a8804e8037653e88680c0, type: 3}
